user_id,shape,position_id,user_x,user_y,error_x,error_y,physical_error_x,physical_error_y
1,b_circle,10,2.0,-2.0,0.7556368281136954,-0.26495109612684997,0.64,0.15
1,b_circle,7,2.0,-1.0,0.40401567401181904,0.06559535689919738,0.39,0.25
1,b_circle,0,1.0,2.0,-0.5846877822197054,-0.31856752008076317,0.47,0.27
1,b_circle,1,2.0,2.0,-0.49519846861246775,-0.03642930577402237,0.55,0.0
1,b_circle,6,3.0,0.0,0.2051288523098176,0.3892861495130543,0.06,0.52
1,b_circle,11,1.0,-2.0,0.24530086050740918,-0.44696498205247215,0.39,0.28
1,b_circle,2,3.0,2.0,-0.24693528353929528,0.36163149799777683,0.4,0.28
1,b_circle,3,2.0,1.0,-0.5559180389322027,-0.07661682746643295,0.6,0.1
1,b_circle,9,3.0,-2.0,0.6286535549305023,0.16615462194267305,0.46,0.31
1,b_circle,8,3.0,-1.0,0.407564920595735,0.33257158042835355,0.34,0.42
1,b_circle,5,2.0,0.0,-0.33073004146520946,0.18147503494301126,9.99,9.99
1,b_circle,4,3.0,1.0,-0.20464082497818126,0.36464811317092627,0.28,0.38
