user_id,shape,position_id,user_x,user_y,error_x,error_y,physical_error_x,physical_error_y
1,8,1,3.0,1.0,0.17276695708631307,0.2821851640510964,0.02,0.02
1,8,0,2.0,1.0,-28.093188782524642,171.42887689113027,0.01,0.01
