user_id,shape,position_id,user_x,user_y,error_x,error_y,physical_error_x,physical_error_y
1,8,0,2.0,1.0,0.1674239930685575,-0.10404394068443734,0.01,0.01
1,8,1,3.0,1.0,0.227336361872279,0.06111988265759938,0.02,0.02
